{
    "fuzzer": "/usr/local/i386/afl-fuzz",
    "_docker": "registry.gitlab.com/rode0day/fuzzer-testing/aflpp:16.04",
    "name": "AFLSmart jpegB XXXX",
    "fuzzer_info": {
        "id": 9,
        "name": "aflsmart",
        "description": "NU_AFLSmart",
        "version": "v2.52b",
        "url": "https://github.com/aflsmart/aflsmart"
        }
}
