{
    "fuzzer": "/usr/local/bin/symcc_fuzzing_helper",
    "_docker": "registry.gitlab.com/rode0day/fuzzer-testing/symcc_runner:16.04",
    "name": "SymCC jpegB XXXX",
    "fuzzer_info": {
        "id": 9,
        "name": "symcc",
        "description": "NU_SymCC",
        "version": "v1.0",
        "url": "https://github.com/eurecom-s3/symcc"
        }
}
