{
    "session":"jpegs",
    "fuzzer": "/usr/local/i386/afl-fuzz",
    "input":"inputs",
    "output":"outputs",
    "target":"./built/bin/memdjpeg",
    "cmdline": "@@",
    "qemu": true,
    "mem_limit":"4096",
    "_time_limit": "24h",
    "interactive": true,
    "_timeout": "20",
    "_afl_margs": "",
    "_file": "",
    "_docker": "registry.gitlab.com/rode0day/fuzzer-testing/i386/aflpp:16.04",
    "_dict": "dict/consts.txt",
    "dirty": false,
    "dumb": false,
    "master_instances": 1,
    "environment": "",
    "fuzz_dirs": [ "outputs" ],
    "name": "jpegS XXXX",
    "description": "XXXX jpegS M=1 N=4 YYYY 2018.09",
    "duration": 24,
    "mutation_engine": "internal",
    "target_info": {
        "name": "jpegS",
        "source": "rode0day 2018.09",
        "known_bugs": 127,
        "challenge_id": 14,
        "architecture": "x86",
        "src_archive": ""
        },
    "fuzzer_info": {
        "id": 1,
        "name": "afl",
        "description": "NU_AFL",
        "version": "v2.52b"
        },
    "verifier": {
        "id": 1,
        "name": "",
        "description": ""
        }
}
